contadores/v_contador.vcd
$date
  Tue Sep 27 16:28:18 2016
$end
$version
  GHDL v0
$end
$timescale
  1 fs
$end
$var reg 4 ! rassi[3:0] $end
$var reg 4 " rsinc[3:0] $end
$var reg 4 # ranel[3:0] $end
$var reg 4 $ rdesl[3:0] $end
$var reg 1 % tb_rel $end
$var reg 1 & tb_rst $end
$var reg 1 ' tb_car $end
$var reg 4 ( tb_inp[3:0] $end
$var reg 4 ) esperada[3:0] $end
$scope module u_assi $end
$var reg 1 * rel $end
$var reg 1 + rst $end
$var reg 4 , q[3:0] $end
$var reg 4 - val[3:0] $end
$scope module u0 $end
$var reg 1 . rel $end
$var reg 1 / rst $end
$var reg 1 0 set $end
$var reg 1 1 d $end
$var reg 1 2 q $end
$var reg 1 3 qn $end
$var reg 1 4 estado $end
$upscope $end
$scope module u1 $end
$var reg 1 5 rel $end
$var reg 1 6 rst $end
$var reg 1 7 set $end
$var reg 1 8 d $end
$var reg 1 9 q $end
$var reg 1 : qn $end
$var reg 1 ; estado $end
$upscope $end
$scope module u2 $end
$var reg 1 < rel $end
$var reg 1 = rst $end
$var reg 1 > set $end
$var reg 1 ? d $end
$var reg 1 @ q $end
$var reg 1 A qn $end
$var reg 1 B estado $end
$upscope $end
$scope module u3 $end
$var reg 1 C rel $end
$var reg 1 D rst $end
$var reg 1 E set $end
$var reg 1 F d $end
$var reg 1 G q $end
$var reg 1 H qn $end
$var reg 1 I estado $end
$upscope $end
$upscope $end
$scope module u_sinc $end
$var reg 1 J rel $end
$var reg 1 K rst $end
$var reg 4 L q[3:0] $end
$var reg 4 M val[3:0] $end
$var reg 1 N a1 $end
$var reg 1 O a2 $end
$scope module u0 $end
$var reg 1 P rel $end
$var reg 1 Q rst $end
$var reg 1 R set $end
$var reg 1 S d $end
$var reg 1 T q $end
$var reg 1 U qn $end
$var reg 1 V estado $end
$upscope $end
$scope module u1 $end
$var reg 1 W rel $end
$var reg 1 X rst $end
$var reg 1 Y set $end
$var reg 1 Z d $end
$var reg 1 [ q $end
$var reg 1 \ qn $end
$var reg 1 ] estado $end
$upscope $end
$scope module g1 $end
$var reg 1 ^ a $end
$var reg 1 _ b $end
$var reg 1 ` s $end
$upscope $end
$scope module u2 $end
$var reg 1 a rel $end
$var reg 1 b rst $end
$var reg 1 c set $end
$var reg 1 d d $end
$var reg 1 e q $end
$var reg 1 f qn $end
$var reg 1 g estado $end
$upscope $end
$scope module g2 $end
$var reg 1 h a $end
$var reg 1 i b $end
$var reg 1 j s $end
$upscope $end
$scope module u3 $end
$var reg 1 k rel $end
$var reg 1 l rst $end
$var reg 1 m set $end
$var reg 1 n d $end
$var reg 1 o q $end
$var reg 1 p qn $end
$var reg 1 q estado $end
$upscope $end
$upscope $end
$scope module u_anel $end
$var reg 1 r rel $end
$var reg 1 s rst $end
$var reg 4 t q[3:0] $end
$var reg 4 u val[3:0] $end
$scope module u0 $end
$var reg 1 v rel $end
$var reg 1 w rst $end
$var reg 1 x set $end
$var reg 1 y d $end
$var reg 1 z q $end
$var reg 1 { estado $end
$upscope $end
$scope module u1 $end
$var reg 1 | rel $end
$var reg 1 } rst $end
$var reg 1 !" set $end
$var reg 1 "" d $end
$var reg 1 #" q $end
$var reg 1 $" estado $end
$upscope $end
$scope module u2 $end
$var reg 1 %" rel $end
$var reg 1 &" rst $end
$var reg 1 '" set $end
$var reg 1 (" d $end
$var reg 1 )" q $end
$var reg 1 *" estado $end
$upscope $end
$scope module u3 $end
$var reg 1 +" rel $end
$var reg 1 ," rst $end
$var reg 1 -" set $end
$var reg 1 ." d $end
$var reg 1 /" q $end
$var reg 1 0" estado $end
$upscope $end
$upscope $end
$scope module u_desl $end
$var reg 1 1" rel $end
$var reg 1 2" rst $end
$var reg 1 3" car $end
$var reg 4 4" d[3:0] $end
$var reg 4 5" q[3:0] $end
$var reg 4 6" est[3:0] $end
$var reg 4 7" inp[3:0] $end
$scope module m0 $end
$var reg 1 8" a $end
$var reg 1 9" b $end
$var reg 1 :" s $end
$var reg 1 ;" z $end
$var reg 1 <" negs $end
$var reg 1 =" f0 $end
$var reg 1 >" f1 $end
$scope module ui $end
$var reg 1 ?" a $end
$var reg 1 @" s $end
$upscope $end
$scope module ua0 $end
$var reg 1 A" a $end
$var reg 1 B" b $end
$var reg 1 C" s $end
$upscope $end
$scope module ua1 $end
$var reg 1 D" a $end
$var reg 1 E" b $end
$var reg 1 F" s $end
$upscope $end
$scope module uor $end
$var reg 1 G" a $end
$var reg 1 H" b $end
$var reg 1 I" s $end
$upscope $end
$upscope $end
$scope module u0 $end
$var reg 1 J" rel $end
$var reg 1 K" rst $end
$var reg 1 L" set $end
$var reg 1 M" d $end
$var reg 1 N" q $end
$var reg 1 O" estado $end
$upscope $end
$scope module m1 $end
$var reg 1 P" a $end
$var reg 1 Q" b $end
$var reg 1 R" s $end
$var reg 1 S" z $end
$var reg 1 T" negs $end
$var reg 1 U" f0 $end
$var reg 1 V" f1 $end
$scope module ui $end
$var reg 1 W" a $end
$var reg 1 X" s $end
$upscope $end
$scope module ua0 $end
$var reg 1 Y" a $end
$var reg 1 Z" b $end
$var reg 1 [" s $end
$upscope $end
$scope module ua1 $end
$var reg 1 \" a $end
$var reg 1 ]" b $end
$var reg 1 ^" s $end
$upscope $end
$scope module uor $end
$var reg 1 _" a $end
$var reg 1 `" b $end
$var reg 1 a" s $end
$upscope $end
$upscope $end
$scope module u1 $end
$var reg 1 b" rel $end
$var reg 1 c" rst $end
$var reg 1 d" set $end
$var reg 1 e" d $end
$var reg 1 f" q $end
$var reg 1 g" estado $end
$upscope $end
$scope module m2 $end
$var reg 1 h" a $end
$var reg 1 i" b $end
$var reg 1 j" s $end
$var reg 1 k" z $end
$var reg 1 l" negs $end
$var reg 1 m" f0 $end
$var reg 1 n" f1 $end
$scope module ui $end
$var reg 1 o" a $end
$var reg 1 p" s $end
$upscope $end
$scope module ua0 $end
$var reg 1 q" a $end
$var reg 1 r" b $end
$var reg 1 s" s $end
$upscope $end
$scope module ua1 $end
$var reg 1 t" a $end
$var reg 1 u" b $end
$var reg 1 v" s $end
$upscope $end
$scope module uor $end
$var reg 1 w" a $end
$var reg 1 x" b $end
$var reg 1 y" s $end
$upscope $end
$upscope $end
$scope module u2 $end
$var reg 1 z" rel $end
$var reg 1 {" rst $end
$var reg 1 |" set $end
$var reg 1 }" d $end
$var reg 1 !# q $end
$var reg 1 "# estado $end
$upscope $end
$scope module m3 $end
$var reg 1 ## a $end
$var reg 1 $# b $end
$var reg 1 %# s $end
$var reg 1 &# z $end
$var reg 1 '# negs $end
$var reg 1 (# f0 $end
$var reg 1 )# f1 $end
$scope module ui $end
$var reg 1 *# a $end
$var reg 1 +# s $end
$upscope $end
$scope module ua0 $end
$var reg 1 ,# a $end
$var reg 1 -# b $end
$var reg 1 .# s $end
$upscope $end
$scope module ua1 $end
$var reg 1 /# a $end
$var reg 1 0# b $end
$var reg 1 1# s $end
$upscope $end
$scope module uor $end
$var reg 1 2# a $end
$var reg 1 3# b $end
$var reg 1 4# s $end
$upscope $end
$upscope $end
$scope module u3 $end
$var reg 1 5# rel $end
$var reg 1 6# rst $end
$var reg 1 7# set $end
$var reg 1 8# d $end
$var reg 1 9# q $end
$var reg 1 :# estado $end
$upscope $end
$upscope $end
$enddefinitions $end
#0
b0000 !
b0000 "
b0001 #
b0000 $
0%
0&
1'
b0000 (
b0000 )
0*
0+
b0000 ,
b0000 -
0.
0/
10
11
02
13
04
05
06
17
18
09
1:
0;
0<
0=
1>
1?
0@
1A
0B
0C
0D
1E
1F
0G
1H
0I
0J
0K
b0000 L
b0000 M
0N
0O
0P
0Q
1R
1S
0T
1U
0V
0W
0X
1Y
0Z
0[
1\
0]
0^
0_
0`
0a
0b
1c
0d
0e
1f
0g
0h
0i
0j
0k
0l
1m
0n
0o
1p
0q
0r
0s
b0001 t
b0001 u
0v
1w
0x
0y
1z
1{
0|
0}
1!"
1""
0#"
0$"
0%"
0&"
1'"
0("
0)"
0*"
0+"
0,"
1-"
0."
0/"
00"
01"
02"
13"
b0000 4"
b0000 5"
b0000 6"
b0000 7"
08"
09"
1:"
0;"
0<"
0="
0>"
1?"
0@"
0A"
0B"
0C"
0D"
1E"
0F"
0G"
0H"
0I"
0J"
0K"
1L"
0M"
0N"
0O"
0P"
0Q"
1R"
0S"
0T"
0U"
0V"
1W"
0X"
0Y"
0Z"
0["
0\"
1]"
0^"
0_"
0`"
0a"
0b"
0c"
1d"
0e"
0f"
0g"
0h"
0i"
1j"
0k"
0l"
0m"
0n"
1o"
0p"
0q"
0r"
0s"
0t"
1u"
0v"
0w"
0x"
0y"
0z"
0{"
1|"
0}"
0!#
0"#
0##
0$#
1%#
0&#
0'#
0(#
0)#
1*#
0+#
0,#
0-#
0.#
0/#
10#
01#
02#
03#
04#
05#
06#
17#
08#
09#
0:#
#30000
1&
1+
1/
16
1=
1D
1K
1Q
1X
1b
1l
1s
1x
1}
1&"
1,"
12"
1K"
1c"
1{"
16#
#100000
b1111 !
b0001 "
b0010 #
1%
b1111 (
1*
b1111 ,
b1111 -
1.
12
03
14
15
19
0:
1;
1<
1@
0A
1B
1C
1G
0H
1I
1J
b0001 L
b0001 M
1P
1T
0U
1V
1W
1Z
1^
0`
1a
1k
1r
b0010 t
b0010 u
1v
0z
0{
1|
0""
1#"
1$"
1%"
1("
1+"
11"
b1111 4"
b1111 7"
18"
19"
1;"
1>"
1A"
0C"
1D"
1F"
1H"
1I"
1J"
1M"
1Q"
1S"
1V"
1\"
1^"
1`"
1a"
1b"
1e"
1i"
1k"
1n"
1t"
1v"
1x"
1y"
1z"
1}"
1$#
1&#
1)#
1/#
11#
13#
14#
15#
18#
#200000
0%
0*
0.
0J
0P
0W
0a
0k
0r
0v
0|
0%"
0+"
01"
0J"
0b"
0z"
05#
#300000
b1110 !
b0010 "
b0100 #
b1111 $
1%
0'
b0000 (
b1111 )
1*
b1110 ,
b1110 -
1.
02
13
04
05
1J
b0010 L
b0010 M
1P
0T
1U
0V
1W
0Z
1[
0\
1]
0^
1_
0`
1a
1k
1r
b0100 t
b0100 u
1v
1|
0#"
0$"
1%"
0("
1)"
1*"
1+"
1."
11"
03"
b0000 4"
b1111 5"
b1111 6"
b0111 7"
08"
09"
0:"
0;"
1<"
0>"
0?"
1@"
0A"
1B"
0C"
0D"
0E"
0F"
0H"
0I"
1J"
0M"
1N"
1O"
1P"
0Q"
0R"
1S"
1T"
1U"
0V"
0W"
1X"
1Y"
1Z"
1["
0\"
0]"
0^"
1_"
0`"
1a"
1b"
1e"
1f"
1g"
1h"
0i"
0j"
1k"
1l"
1m"
0n"
0o"
1p"
1q"
1r"
1s"
0t"
0u"
0v"
1w"
0x"
1y"
1z"
1}"
1!#
1"#
1##
0$#
0%#
1&#
1'#
1(#
0)#
0*#
1+#
1,#
1-#
1.#
0/#
00#
01#
12#
03#
14#
15#
18#
19#
1:#
#400000
0%
0*
0.
0J
0P
0W
0a
0k
0r
0v
0|
0%"
0+"
01"
0J"
0b"
0z"
05#
#500000
b1101 !
b0011 "
b1000 #
b0111 $
1%
b0111 )
1*
b1101 ,
b1101 -
1.
12
03
14
15
09
1:
0;
0<
1J
b0011 L
b0011 M
1N
1P
1T
0U
1V
1W
1Z
1^
1`
1a
1d
1h
0j
1k
1r
b1000 t
b1000 u
1v
1y
1|
1%"
0)"
0*"
1+"
0."
1/"
10"
11"
b0111 5"
b0111 6"
b0011 7"
1J"
0N"
0O"
0P"
0S"
0U"
0Y"
0["
0_"
0a"
1b"
0e"
1z"
15#
#600000
0%
0*
0.
0J
0P
0W
0a
0k
0r
0v
0|
0%"
0+"
01"
0J"
0b"
0z"
05#
#700000
b1100 !
b0100 "
b0001 #
b0011 $
1%
b0011 )
1*
b1100 ,
b1100 -
1.
02
13
04
05
1J
b0100 L
b0100 M
0N
0O
1P
0T
1U
0V
1W
0Z
0[
1\
0]
0^
0_
0`
1a
0d
1e
0f
1g
0h
1i
0j
1k
0n
1r
b0001 t
b0001 u
1v
0y
1z
1{
1|
1""
1%"
1+"
0/"
00"
11"
b0011 5"
b0011 6"
b0001 7"
1J"
1b"
0f"
0g"
0h"
0k"
0m"
0q"
0s"
0w"
0y"
1z"
0}"
15#
#800000
0%
0*
0.
0J
0P
0W
0a
0k
0r
0v
0|
0%"
0+"
01"
0J"
0b"
0z"
05#
#900000
b1011 !
b0101 "
b0010 #
b0001 $
1%
b0001 )
1*
b1011 ,
b1011 -
1.
12
03
14
15
19
0:
1;
1<
0@
1A
0B
0C
1J
b0101 L
b0101 M
1P
1T
0U
1V
1W
1Z
1^
0`
1a
1k
1r
b0010 t
b0010 u
1v
0z
0{
1|
0""
1#"
1$"
1%"
1("
1+"
11"
b0001 5"
b0001 6"
b0000 7"
1J"
1b"
1z"
0!#
0"#
0##
0&#
0(#
0,#
0.#
02#
04#
15#
08#
#1000000
0%
0*
0.
0J
0P
0W
0a
0k
0r
0v
0|
0%"
0+"
01"
0J"
0b"
0z"
05#
#1100000
b1010 !
b0110 "
b0100 #
b0000 $
1%
1'
b1110 (
b0000 )
1*
b1010 ,
b1010 -
1.
02
13
04
05
1J
b0110 L
b0110 M
1P
0T
1U
0V
1W
0Z
1[
0\
1]
0^
1_
0`
1a
1k
1r
b0100 t
b0100 u
1v
1|
0#"
0$"
1%"
0("
1)"
1*"
1+"
1."
11"
13"
b1110 4"
b0000 5"
b0000 6"
b1110 7"
18"
19"
1:"
1;"
0<"
0="
1>"
1?"
0@"
1A"
0B"
0C"
1D"
1E"
1F"
0G"
1H"
1I"
1J"
1M"
1Q"
1R"
1S"
0T"
1V"
1W"
0X"
0Z"
0["
1\"
1]"
1^"
1`"
1a"
1b"
1e"
1i"
1j"
1k"
0l"
1n"
1o"
0p"
0r"
0s"
1t"
1u"
1v"
1x"
1y"
1z"
1}"
1%#
0'#
1*#
0+#
0-#
0.#
10#
01#
15#
09#
0:#
#1200000
0%
0*
0.
0J
0P
0W
0a
0k
0r
0v
0|
0%"
0+"
01"
0J"
0b"
0z"
05#
#1300000
b1001 !
b0111 "
b1000 #
b1110 $
1%
0'
b0000 (
b1110 )
1*
b1001 ,
b1001 -
1.
12
03
14
15
09
1:
0;
0<
1J
b0111 L
b0111 M
1N
1O
1P
1T
0U
1V
1W
1Z
1^
1`
1a
1d
1h
1j
1k
1n
1r
b1000 t
b1000 u
1v
1y
1|
1%"
0)"
0*"
1+"
0."
1/"
10"
11"
03"
b0000 4"
b1110 5"
b1110 6"
b0111 7"
08"
09"
0:"
0;"
1<"
0>"
0?"
1@"
0A"
1B"
0C"
0D"
0E"
0F"
0H"
0I"
1J"
0M"
1N"
1O"
1P"
0Q"
0R"
1S"
1T"
1U"
0V"
0W"
1X"
1Y"
1Z"
1["
0\"
0]"
0^"
1_"
0`"
1a"
1b"
1e"
1f"
1g"
1h"
0i"
0j"
1k"
1l"
1m"
0n"
0o"
1p"
1q"
1r"
1s"
0t"
0u"
0v"
1w"
0x"
1y"
1z"
1}"
1!#
1"#
1##
0%#
1&#
1'#
1(#
0*#
1+#
1,#
1-#
1.#
00#
01#
12#
14#
15#
18#
#1400000
0%
0*
0.
0J
0P
0W
0a
0k
0r
0v
0|
0%"
0+"
01"
0J"
0b"
0z"
05#
#1500000
b1000 !
b1000 "
b0001 #
b0111 $
1%
1'
b0111 )
1*
b1000 ,
b1000 -
1.
02
13
04
05
1J
b1000 L
b1000 M
0N
0O
1P
0T
1U
0V
1W
0Z
0[
1\
0]
0^
0_
0`
1a
0d
0e
1f
0g
0h
0i
0j
1k
0n
1o
0p
1q
1r
b0001 t
b0001 u
1v
0y
1z
1{
1|
1""
1%"
1+"
0/"
00"
11"
13"
b0111 5"
b0111 6"
b0000 7"
1:"
0<"
1?"
0@"
0B"
0C"
1E"
0F"
1J"
0N"
0O"
0P"
1R"
0S"
0T"
0U"
1W"
0X"
0Y"
0Z"
0["
1]"
0^"
0_"
0a"
1b"
0e"
1j"
0k"
0l"
0m"
1o"
0p"
0r"
0s"
1u"
0v"
0w"
0y"
1z"
0}"
1%#
0&#
0'#
0(#
1*#
0+#
0-#
0.#
10#
01#
02#
04#
15#
08#
19#
1:#
#1600000
0%
0*
0.
0J
0P
0W
0a
0k
0r
0v
0|
0%"
0+"
01"
0J"
0b"
0z"
05#
#1700000
b0111 !
b1001 "
b0010 #
b0000 $
1%
b0000 )
1*
b0111 ,
b0111 -
1.
12
03
14
15
19
0:
1;
1<
1@
0A
1B
1C
0G
1H
0I
1J
b1001 L
b1001 M
1P
1T
0U
1V
1W
1Z
1^
0`
1a
1k
1r
b0010 t
b0010 u
1v
0z
0{
1|
0""
1#"
1$"
1%"
1("
1+"
11"
b0000 5"
b0000 6"
1J"
1b"
0f"
0g"
0h"
0q"
0s"
1z"
0!#
0"#
0##
0,#
0.#
15#
09#
0:#
#1800000
0%
0*
0.
0J
0P
0W
0a
0k
0r
0v
0|
0%"
0+"
01"
0J"
0b"
0z"
05#
#1900000
b0110 !
b1010 "
b0100 #
1%
b1111 (
1*
b0110 ,
b0110 -
1.
02
13
04
05
1J
b1010 L
b1010 M
1P
0T
1U
0V
1W
0Z
1[
0\
1]
0^
1_
0`
1a
1k
1r
b0100 t
b0100 u
1v
1|
0#"
0$"
1%"
0("
1)"
1*"
1+"
1."
11"
b1111 4"
b1111 7"
18"
19"
1;"
1>"
1A"
0C"
1D"
1F"
1H"
1I"
1J"
1M"
1Q"
1S"
1V"
1\"
1^"
1`"
1a"
1b"
1e"
1i"
1k"
1n"
1t"
1v"
1x"
1y"
1z"
1}"
1$#
1&#
1)#
1/#
11#
13#
14#
15#
18#
#2000000
0%
0*
0.
0J
0P
0W
0a
0k
0r
0v
0|
0%"
0+"
01"
0J"
0b"
0z"
05#
#2100000
b0101 !
b1011 "
b1000 #
b1111 $
1%
0'
b0000 (
b1111 )
1*
b0101 ,
b0101 -
1.
12
03
14
15
09
1:
0;
0<
1J
b1011 L
b1011 M
1N
1P
1T
0U
1V
1W
1Z
1^
1`
1a
1d
1h
0j
1k
1r
b1000 t
b1000 u
1v
1y
1|
1%"
0)"
0*"
1+"
0."
1/"
10"
11"
03"
b0000 4"
b1111 5"
b1111 6"
b0111 7"
08"
09"
0:"
0;"
1<"
0>"
0?"
1@"
0A"
1B"
0C"
0D"
0E"
0F"
0H"
0I"
1J"
0M"
1N"
1O"
1P"
0Q"
0R"
1S"
1T"
1U"
0V"
0W"
1X"
1Y"
1Z"
1["
0\"
0]"
0^"
1_"
0`"
1a"
1b"
1e"
1f"
1g"
1h"
0i"
0j"
1k"
1l"
1m"
0n"
0o"
1p"
1q"
1r"
1s"
0t"
0u"
0v"
1w"
0x"
1y"
1z"
1}"
1!#
1"#
1##
0$#
0%#
1&#
1'#
1(#
0)#
0*#
1+#
1,#
1-#
1.#
0/#
00#
01#
12#
03#
14#
15#
18#
19#
1:#
#2200000
0%
0*
0.
0J
0P
0W
0a
0k
0r
0v
0|
0%"
0+"
01"
0J"
0b"
0z"
05#
#2300000
b0100 !
b1100 "
b0001 #
b0111 $
1%
b0111 )
1*
b0100 ,
b0100 -
1.
02
13
04
05
1J
b1100 L
b1100 M
0N
0O
1P
0T
1U
0V
1W
0Z
0[
1\
0]
0^
0_
0`
1a
0d
1e
0f
1g
0h
1i
0j
1k
0n
1r
b0001 t
b0001 u
1v
0y
1z
1{
1|
1""
1%"
1+"
0/"
00"
11"
b0111 5"
b0111 6"
b0011 7"
1J"
0N"
0O"
0P"
0S"
0U"
0Y"
0["
0_"
0a"
1b"
0e"
1z"
15#
#2400000
0%
0*
0.
0J
0P
0W
0a
0k
0r
0v
0|
0%"
0+"
01"
0J"
0b"
0z"
05#
#2500000
b0011 !
b1101 "
b0010 #
b0011 $
1%
b0011 )
1*
b0011 ,
b0011 -
1.
12
03
14
15
19
0:
1;
1<
0@
1A
0B
0C
1J
b1101 L
b1101 M
1P
1T
0U
1V
1W
1Z
1^
0`
1a
1k
1r
b0010 t
b0010 u
1v
0z
0{
1|
0""
1#"
1$"
1%"
1("
1+"
11"
b0011 5"
b0011 6"
b0001 7"
1J"
1b"
0f"
0g"
0h"
0k"
0m"
0q"
0s"
0w"
0y"
1z"
0}"
15#
#2600000
0%
0*
0.
0J
0P
0W
0a
0k
0r
0v
0|
0%"
0+"
01"
0J"
0b"
0z"
05#
#2700000
b0010 !
b1110 "
b0100 #
b0001 $
1%
b0001 )
1*
b0010 ,
b0010 -
1.
02
13
04
05
1J
b1110 L
b1110 M
1P
0T
1U
0V
1W
0Z
1[
0\
1]
0^
1_
0`
1a
1k
1r
b0100 t
b0100 u
1v
1|
0#"
0$"
1%"
0("
1)"
1*"
1+"
1."
11"
b0001 5"
b0001 6"
b0000 7"
1J"
1b"
1z"
0!#
0"#
0##
0&#
0(#
0,#
0.#
02#
04#
15#
08#
#2800000
0%
0*
0.
0J
0P
0W
0a
0k
0r
0v
0|
0%"
0+"
01"
0J"
0b"
0z"
05#
#2900000
b0001 !
b1111 "
b1000 #
b0000 $
1%
1'
b0000 )
1*
b0001 ,
b0001 -
1.
12
03
14
15
09
1:
0;
0<
1J
b1111 L
b1111 M
1N
1O
1P
1T
0U
1V
1W
1Z
1^
1`
1a
1d
1h
1j
1k
1n
1r
b1000 t
b1000 u
1v
1y
1|
1%"
0)"
0*"
1+"
0."
1/"
10"
11"
13"
b0000 5"
b0000 6"
1:"
0<"
1?"
0@"
0B"
0C"
1E"
0F"
1J"
1R"
0T"
1W"
0X"
0Z"
0["
1]"
0^"
1b"
1j"
0l"
1o"
0p"
0r"
0s"
1u"
0v"
1z"
1%#
0'#
1*#
0+#
0-#
0.#
10#
01#
15#
09#
0:#
#3000000
0%
0*
0.
0J
0P
0W
0a
0k
0r
0v
0|
0%"
0+"
01"
0J"
0b"
0z"
05#
#3100000
b0000 !
b0000 "
b0001 #
1%
b0100 (
1*
b0000 ,
b0000 -
1.
02
13
04
05
1J
b0000 L
b0000 M
0N
0O
1P
0T
1U
0V
1W
0Z
0[
1\
0]
0^
0_
0`
1a
0d
0e
1f
0g
0h
0i
0j
1k
0n
0o
1p
0q
1r
b0001 t
b0001 u
1v
0y
1z
1{
1|
1""
1%"
1+"
0/"
00"
11"
b0100 4"
b0100 7"
1J"
1Q"
1S"
1V"
1\"
1^"
1`"
1a"
1b"
1e"
1z"
15#
#3200000
0%
0*
0.
0J
0P
0W
0a
0k
0r
0v
0|
0%"
0+"
01"
0J"
0b"
0z"
05#
#3300000
b1111 !
b0001 "
b0010 #
b0100 $
1%
b0111 (
b0100 )
1*
b1111 ,
b1111 -
1.
12
03
14
15
19
0:
1;
1<
1@
0A
1B
1C
1G
0H
1I
1J
b0001 L
b0001 M
1P
1T
0U
1V
1W
1Z
1^
0`
1a
1k
1r
b0010 t
b0010 u
1v
0z
0{
1|
0""
1#"
1$"
1%"
1("
1+"
11"
b0111 4"
b0100 5"
b0100 6"
b0111 7"
1J"
1b"
1f"
1g"
1h"
1i"
1k"
1n"
1q"
0s"
1t"
1v"
1x"
1y"
1z"
1}"
1$#
1&#
1)#
1/#
11#
13#
14#
15#
18#
#3400000
0%
0*
0.
0J
0P
0W
0a
0k
0r
0v
0|
0%"
0+"
01"
0J"
0b"
0z"
05#
#3500000
b1110 !
b0010 "
b0100 #
b0111 $
1%
b0000 (
b0111 )
1*
b1110 ,
b1110 -
1.
02
13
04
05
1J
b0010 L
b0010 M
1P
0T
1U
0V
1W
0Z
1[
0\
1]
0^
1_
0`
1a
1k
1r
b0100 t
b0100 u
1v
1|
0#"
0$"
1%"
0("
1)"
1*"
1+"
1."
11"
b0000 4"
b0111 5"
b0111 6"
b0000 7"
1J"
0Q"
0S"
0V"
0\"
0^"
0`"
0a"
1b"
0e"
0i"
0k"
0n"
0t"
0v"
0x"
0y"
1z"
0}"
1!#
1"#
1##
0$#
0&#
0)#
1,#
0.#
0/#
01#
03#
04#
15#
08#
19#
1:#
#3600000
0%
0*
0.
0J
0P
0W
0a
0k
0r
0v
0|
0%"
0+"
01"
0J"
0b"
0z"
05#
#3700000
b1101 !
b0011 "
b1000 #
b0000 $
1%
b1000 (
b0000 )
1*
b1101 ,
b1101 -
1.
12
03
14
15
09
1:
0;
0<
1J
b0011 L
b0011 M
1N
1P
1T
0U
1V
1W
1Z
1^
1`
1a
1d
1h
0j
1k
1r
b1000 t
b1000 u
1v
1y
1|
1%"
0)"
0*"
1+"
0."
1/"
10"
11"
b1000 4"
b0000 5"
b0000 6"
b1000 7"
18"
19"
1;"
1>"
1A"
0C"
1D"
1F"
1H"
1I"
1J"
1M"
1b"
0f"
0g"
0h"
0q"
0s"
1z"
0!#
0"#
0##
0,#
0.#
15#
09#
0:#
#3800000
0%
0*
0.
0J
0P
0W
0a
0k
0r
0v
0|
0%"
0+"
01"
0J"
0b"
0z"
05#
#3900000
b1100 !
b0100 "
b0001 #
b1000 $
1%
b0011 (
b1000 )
1*
b1100 ,
b1100 -
1.
02
13
04
05
1J
b0100 L
b0100 M
0N
0O
1P
0T
1U
0V
1W
0Z
0[
1\
0]
0^
0_
0`
1a
0d
1e
0f
1g
0h
1i
0j
1k
0n
1r
b0001 t
b0001 u
1v
0y
1z
1{
1|
1""
1%"
1+"
0/"
00"
11"
b0011 4"
b1000 5"
b1000 6"
b0011 7"
08"
09"
0;"
0>"
0A"
0C"
0D"
0F"
0H"
0I"
1J"
0M"
1N"
1O"
1P"
1Y"
0["
1b"
1i"
1k"
1n"
1t"
1v"
1x"
1y"
1z"
1}"
1$#
1&#
1)#
1/#
11#
13#
14#
15#
18#
#4000000
0%
0*
0.
0J
0P
0W
0a
0k
0r
0v
0|
0%"
0+"
01"
0J"
0b"
0z"
05#
#4100000
b1011 !
b0101 "
b0010 #
b0011 $
1%
b0000 (
b0011 )
1*
b1011 ,
b1011 -
1.
12
03
14
15
19
0:
1;
1<
0@
1A
0B
0C
1J
b0101 L
b0101 M
1P
1T
0U
1V
1W
1Z
1^
0`
1a
1k
1r
b0010 t
b0010 u
1v
0z
0{
1|
0""
1#"
1$"
1%"
1("
1+"
11"
b0000 4"
b0011 5"
b0011 6"
b0000 7"
1J"
0N"
0O"
0P"
0Y"
0["
1b"
0i"
0k"
0n"
0t"
0v"
0x"
0y"
1z"
0}"
1!#
1"#
1##
0$#
0&#
0)#
1,#
0.#
0/#
01#
03#
04#
15#
08#
19#
1:#
#4200000
0%
0*
0.
0J
0P
0W
0a
0k
0r
0v
0|
0%"
0+"
01"
0J"
0b"
0z"
05#
#4300000
b1010 !
b0110 "
b0100 #
b0000 $
1%
b0000 )
1*
b1010 ,
b1010 -
1.
02
13
04
05
1J
b0110 L
b0110 M
1P
0T
1U
0V
1W
0Z
1[
0\
1]
0^
1_
0`
1a
1k
1r
b0100 t
b0100 u
1v
1|
0#"
0$"
1%"
0("
1)"
1*"
1+"
1."
11"
b0000 5"
b0000 6"
1J"
1b"
1z"
0!#
0"#
0##
0,#
0.#
15#
09#
0:#
#4400000
0%
0*
0.
0J
0P
0W
0a
0k
0r
0v
0|
0%"
0+"
01"
0J"
0b"
0z"
05#
#4500000
b1001 !
b0111 "
b1000 #
1%
1*
b1001 ,
b1001 -
1.
12
03
14
15
09
1:
0;
0<
1J
b0111 L
b0111 M
1N
1O
1P
1T
0U
1V
1W
1Z
1^
1`
1a
1d
1h
1j
1k
1n
1r
b1000 t
b1000 u
1v
1y
1|
1%"
0)"
0*"
1+"
0."
1/"
10"
11"
1J"
1b"
1z"
15#
#4600000
0%
0*
0.
0J
0P
0W
0a
0k
0r
0v
0|
0%"
0+"
01"
0J"
0b"
0z"
05#
#4700000
b1000 !
b1000 "
b0001 #
1%
1*
b1000 ,
b1000 -
1.
02
13
04
05
1J
b1000 L
b1000 M
0N
0O
1P
0T
1U
0V
1W
0Z
0[
1\
0]
0^
0_
0`
1a
0d
0e
1f
0g
0h
0i
0j
1k
0n
1o
0p
1q
1r
b0001 t
b0001 u
1v
0y
1z
1{
1|
1""
1%"
1+"
0/"
00"
11"
1J"
1b"
1z"
15#
#4800000
0%
0*
0.
0J
0P
0W
0a
0k
0r
0v
0|
0%"
0+"
01"
0J"
0b"
0z"
05#
#4900000
b0111 !
b1001 "
b0010 #
1%
1*
b0111 ,
b0111 -
1.
12
03
14
15
19
0:
1;
1<
1@
0A
1B
1C
0G
1H
0I
1J
b1001 L
b1001 M
1P
1T
0U
1V
1W
1Z
1^
0`
1a
1k
1r
b0010 t
b0010 u
1v
0z
0{
1|
0""
1#"
1$"
1%"
1("
1+"
11"
1J"
1b"
1z"
15#
#5000000
0%
0*
0.
0J
0P
0W
0a
0k
0r
0v
0|
0%"
0+"
01"
0J"
0b"
0z"
05#
#5100000
b0110 !
b1010 "
b0100 #
1%
1*
b0110 ,
b0110 -
1.
02
13
04
05
1J
b1010 L
b1010 M
1P
0T
1U
0V
1W
0Z
1[
0\
1]
0^
1_
0`
1a
1k
1r
b0100 t
b0100 u
1v
1|
0#"
0$"
1%"
0("
1)"
1*"
1+"
1."
11"
1J"
1b"
1z"
15#
#5200000
0%
0*
0.
0J
0P
0W
0a
0k
0r
0v
0|
0%"
0+"
01"
0J"
0b"
0z"
05#
#5300000
b0101 !
b1011 "
b1000 #
1%
1*
b0101 ,
b0101 -
1.
12
03
14
15
09
1:
0;
0<
1J
b1011 L
b1011 M
1N
1P
1T
0U
1V
1W
1Z
1^
1`
1a
1d
1h
0j
1k
1r
b1000 t
b1000 u
1v
1y
1|
1%"
0)"
0*"
1+"
0."
1/"
10"
11"
1J"
1b"
1z"
15#
#5400000
0%
0*
0.
0J
0P
0W
0a
0k
0r
0v
0|
0%"
0+"
01"
0J"
0b"
0z"
05#
