processos/v_me.vcd
$date
  Tue Sep 20 14:49:49 2016
$end
$version
  GHDL v0
$end
$timescale
  1 fs
$end
$comment curr_st is not handled $end
$comment next_st is not handled $end
$var reg 1 ! clk $end
$var reg 1 " reset $end
$var reg 1 # entr $end
$var reg 1 $ found $end
$var reg 1 % esperada $end
$var integer 32 & dbg_st $end
$enddefinitions $end
#0
0!
0"
0#
0$
0%
b0 &
#30000
1"
#100000
1!
b1 &
#200000
0!
#300000
1!
1#
#400000
0!
#500000
1!
b10 &
#600000
0!
#700000
1!
b11 &
#800000
0!
#900000
1!
b100 &
#1000000
0!
#1100000
1!
b101 &
#1200000
0!
#1300000
1!
b110 &
#1400000
0!
#1500000
1!
0#
b111 &
#1600000
0!
#1700000
1!
1$
1%
b1000 &
#1800000
0!
#1900000
1!
1#
0$
0%
b1 &
#2000000
0!
#2100000
1!
b10 &
#2200000
0!
#2300000
1!
0#
b11 &
#2400000
0!
#2500000
1!
1#
b1 &
#2600000
0!
#2700000
1!
b10 &
#2800000
0!
#2900000
1!
b11 &
#3000000
0!
#3100000
1!
b100 &
#3200000
0!
#3300000
1!
b101 &
#3400000
0!
#3500000
1!
b110 &
#3600000
0!
#3700000
1!
0#
b111 &
#3800000
0!
#3900000
1!
1#
1$
1%
b1000 &
#4000000
0!
#4100000
1!
0#
0$
0%
b0 &
#4200000
0!
#4300000
1!
b1 &
#4400000
0!
#4500000
1!
#4600000
0!
#4700000
1!
1#
#4800000
0!
#4900000
1!
b10 &
#5000000
0!
#5100000
1!
0#
b11 &
#5200000
0!
#5300000
1!
1#
b1 &
#5400000
0!
#5500000
1!
b10 &
#5600000
0!
#5700000
1!
b11 &
#5800000
0!
#5900000
1!
b100 &
#6000000
0!
#6100000
1!
b101 &
#6200000
0!
#6300000
1!
b110 &
#6400000
0!
#6500000
1!
0#
b111 &
#6600000
0!
#6700000
1!
1#
1$
1%
b1000 &
#6800000
0!
#6900000
1!
0$
0%
b0 &
